{
  "twitter": {
    "consumer_key": "COIcfpKz3OyUaXC51JXLqDJVk",
    "consumer_secret": "oR9cSBi1HlqpoBu5ICSiuzOP9CO09u2cxVfihWHUPFZRpMvvti",
    "access_token": "1450529298729865219-bQhmGQReboNORGLC0ddncSJS4NiPbe",
    "access_token_secret": "Fr9w7ixLZ9Iwhl1G9c1QHsnDr65Nh021sjflUzvv2uMOm"
  },
  "reddit": {
    "subreddit": "otter",
    "lastId": "7h8w33"
  }
}